[gd_scene load_steps=3 format=1]

[ext_resource path="res://scenes/level/background1.png" type="Texture" id=1]
[ext_resource path="res://scenes/level/background2.png" type="Texture" id=2]

[node name="ParallaxBackground" type="ParallaxBackground"]

layer = -1
offset = Vector2( 0, 0 )
rotation = 0.0
scale = Vector2( 1, 1 )
scroll/offset = Vector2( 0, 0 )
scroll/base_offset = Vector2( 0, 0 )
scroll/base_scale = Vector2( 1, 1 )
scroll/limit_begin = Vector2( 0, 0 )
scroll/limit_end = Vector2( 0, 0 )
scroll/ignore_camera_zoom = false

[node name="ParallaxLayer" type="ParallaxLayer" parent="."]

motion/scale = Vector2( 0.25, 0.25 )
motion/offset = Vector2( 0, 0 )
motion/mirroring = Vector2( 1024, 1024 )

[node name="Sprite" type="Sprite" parent="ParallaxLayer"]

texture = ExtResource( 1 )
centered = false

[node name="ParallaxLayer 2" type="ParallaxLayer" parent="."]

motion/scale = Vector2( 0.5, 0.5 )
motion/offset = Vector2( 0, 0 )
motion/mirroring = Vector2( 1024, 1024 )

[node name="Sprite" type="Sprite" parent="ParallaxLayer 2"]

texture = ExtResource( 2 )
centered = false


