[gd_scene load_steps=2 format=1]

[ext_resource path="res://scenes/hud/HUD.gd" type="Script" id=1]

[node name="HUD" type="Control"]

focus/ignore_mouse = false
focus/stop_mouse = true
size_flags/horizontal = 2
size_flags/vertical = 2
margin/left = 0.0
margin/top = 0.0
margin/right = 40.0
margin/bottom = 40.0
script/script = ExtResource( 1 )

[node name="GoldStatus" type="Label" parent="."]

focus/ignore_mouse = true
focus/stop_mouse = true
size_flags/horizontal = 2
size_flags/vertical = 0
margin/left = 10.0
margin/top = 10.0
margin/right = 50.0
margin/bottom = 24.0
text = "Golds"
percent_visible = 1.0
lines_skipped = 0
max_lines_visible = -1


