[gd_resource type="Animation" format=1]

[resource]

resource/name = "fade_from_black"
length = 1.0
loop = false
step = 0.1
tracks/0/type = "value"
tracks/0/path = NodePath("Panel:visibility/opacity")
tracks/0/interp = 1
tracks/0/imported = false
tracks/0/keys = {
"times": FloatArray( 0, 1 ),
"transitions": FloatArray( 1, 1 ),
"update": 0,
"values": [ 1.0, 0.0 ]
}
tracks/1/type = "value"
tracks/1/path = NodePath("Panel:visibility/visible")
tracks/1/interp = 1
tracks/1/imported = false
tracks/1/keys = {
"times": FloatArray( 0, 1 ),
"transitions": FloatArray( 1, 1 ),
"update": 1,
"values": [ true, false ]
}

